<?xml version="1.0" encoding="UTF-8" ?>
<testsuite failures="0" time="0.006" errors="0" skipped="0" tests="1" name="by.raa.home.parser.MathExpressionParserTest">
  <properties>
    <property name="java.runtime.name" value="Java(TM) SE Runtime Environment"/>
    <property name="sun.boot.library.path" value="C:\Oracle\Middleware\Oracle_Home\oracle_common\jdk\jre\bin"/>
    <property name="java.vm.version" value="23.7-b01"/>
    <property name="java.vm.vendor" value="Oracle Corporation"/>
    <property name="java.vendor.url" value="http://java.oracle.com/"/>
    <property name="path.separator" value=";"/>
    <property name="guice.disable.misplaced.annotation.check" value="true"/>
    <property name="java.vm.name" value="Java HotSpot(TM) 64-Bit Server VM"/>
    <property name="file.encoding.pkg" value="sun.io"/>
    <property name="user.script" value=""/>
    <property name="user.country" value="RU"/>
    <property name="sun.java.launcher" value="SUN_STANDARD"/>
    <property name="sun.os.patch.level" value="Service Pack 1"/>
    <property name="java.vm.specification.name" value="Java Virtual Machine Specification"/>
    <property name="user.dir" value="C:\JDeveloper\work\RAAHome\CalculatorTools"/>
    <property name="java.runtime.version" value="1.7.0_15-b33"/>
    <property name="java.awt.graphicsenv" value="sun.awt.Win32GraphicsEnvironment"/>
    <property name="java.endorsed.dirs" value="C:\Oracle\Middleware\Oracle_Home\oracle_common\jdk\jre\lib\endorsed"/>
    <property name="os.arch" value="amd64"/>
    <property name="java.io.tmpdir" value="C:\Users\Admin\AppData\Local\Temp\"/>
    <property name="line.separator" value="
"/>
    <property name="java.vm.specification.vendor" value="Oracle Corporation"/>
    <property name="user.variant" value=""/>
    <property name="os.name" value="Windows 7"/>
    <property name="classworlds.conf" value="C:\Oracle\Middleware\Oracle_Home\oracle_common\modules\org.apache.maven_3.0.4\bin\m2.conf"/>
    <property name="sun.jnu.encoding" value="Cp1251"/>
    <property name="java.library.path" value="C:\Oracle\Middleware\Oracle_Home\oracle_common\jdk\bin;C:\Windows\Sun\Java\bin;C:\Windows\system32;C:\Windows;C:\Windows\system32;C:\Windows;C:\Windows\System32\Wbem;C:\Windows\System32\WindowsPowerShell\v1.0\;C:\Program Files\Java\jdk1.7.0_25\bin;C:\Program Files\MySQL\MySQL Server 5.5\bin;C:\Program Files (x86)\Common Files\Acronis\SnapAPI\;."/>
    <property name="javax.net.ssl.trustStore" value="C:\Users\Admin\AppData\Local\Temp\trustStore5298972630253135841.jks"/>
    <property name="java.specification.name" value="Java Platform API Specification"/>
    <property name="java.class.version" value="51.0"/>
    <property name="sun.management.compiler" value="HotSpot 64-Bit Tiered Compilers"/>
    <property name="os.version" value="6.1"/>
    <property name="user.home" value="C:\Users\Admin"/>
    <property name="user.timezone" value="Europe/Kaliningrad"/>
    <property name="java.awt.printerjob" value="sun.awt.windows.WPrinterJob"/>
    <property name="java.specification.version" value="1.7"/>
    <property name="file.encoding" value="Cp1251"/>
    <property name="user.name" value="Admin"/>
    <property name="java.class.path" value="C:\Oracle\Middleware\Oracle_Home\oracle_common\modules\org.apache.maven_3.0.4\boot\plexus-classworlds-2.4.jar;C:\Oracle\Middleware\Oracle_Home\oracle_common\modules\org.apache.maven_3.0.4\lib\wagon-provider-api-2.2.jar;C:\Oracle\Middleware\Oracle_Home\oracle_common\modules\org.apache.maven_3.0.4\lib\wagon-http-2.2-shaded.jar;C:\Oracle\Middleware\Oracle_Home\oracle_common\modules\org.apache.maven_3.0.4\lib\wagon-file-2.2.jar;C:\Oracle\Middleware\Oracle_Home\oracle_common\modules\org.apache.maven_3.0.4\lib\sisu-inject-plexus-2.3.0.jar;C:\Oracle\Middleware\Oracle_Home\oracle_common\modules\org.apache.maven_3.0.4\lib\sisu-inject-bean-2.3.0.jar;C:\Oracle\Middleware\Oracle_Home\oracle_common\modules\org.apache.maven_3.0.4\lib\sisu-guice-3.1.0-no_aop.jar;C:\Oracle\Middleware\Oracle_Home\oracle_common\modules\org.apache.maven_3.0.4\lib\sisu-guava-0.9.9.jar;C:\Oracle\Middleware\Oracle_Home\oracle_common\modules\org.apache.maven_3.0.4\lib\plexus-utils-2.0.6.jar;C:\Oracle\Middleware\Oracle_Home\oracle_common\modules\org.apache.maven_3.0.4\lib\plexus-sec-dispatcher-1.3.jar;C:\Oracle\Middleware\Oracle_Home\oracle_common\modules\org.apache.maven_3.0.4\lib\plexus-interpolation-1.14.jar;C:\Oracle\Middleware\Oracle_Home\oracle_common\modules\org.apache.maven_3.0.4\lib\plexus-component-annotations-1.5.5.jar;C:\Oracle\Middleware\Oracle_Home\oracle_common\modules\org.apache.maven_3.0.4\lib\plexus-cipher-1.7.jar;C:\Oracle\Middleware\Oracle_Home\oracle_common\modules\org.apache.maven_3.0.4\lib\maven-settings-builder-3.0.4.jar;C:\Oracle\Middleware\Oracle_Home\oracle_common\modules\org.apache.maven_3.0.4\lib\maven-settings-3.0.4.jar;C:\Oracle\Middleware\Oracle_Home\oracle_common\modules\org.apache.maven_3.0.4\lib\maven-repository-metadata-3.0.4.jar;C:\Oracle\Middleware\Oracle_Home\oracle_common\modules\org.apache.maven_3.0.4\lib\maven-plugin-api-3.0.4.jar;C:\Oracle\Middleware\Oracle_Home\oracle_common\modules\org.apache.maven_3.0.4\lib\maven-model-builder-3.0.4.jar;C:\Oracle\Middleware\Oracle_Home\oracle_common\modules\org.apache.maven_3.0.4\lib\maven-model-3.0.4.jar;C:\Oracle\Middleware\Oracle_Home\oracle_common\modules\org.apache.maven_3.0.4\lib\maven-embedder-3.0.4.jar;C:\Oracle\Middleware\Oracle_Home\oracle_common\modules\org.apache.maven_3.0.4\lib\maven-core-3.0.4.jar;C:\Oracle\Middleware\Oracle_Home\oracle_common\modules\org.apache.maven_3.0.4\lib\maven-compat-3.0.4.jar;C:\Oracle\Middleware\Oracle_Home\oracle_common\modules\org.apache.maven_3.0.4\lib\maven-artifact-3.0.4.jar;C:\Oracle\Middleware\Oracle_Home\oracle_common\modules\org.apache.maven_3.0.4\lib\maven-aether-provider-3.0.4.jar;C:\Oracle\Middleware\Oracle_Home\oracle_common\modules\org.apache.maven_3.0.4\lib\commons-cli-1.2.jar;C:\Oracle\Middleware\Oracle_Home\oracle_common\modules\org.apache.maven_3.0.4\lib\aether-util-1.13.1.jar;C:\Oracle\Middleware\Oracle_Home\oracle_common\modules\org.apache.maven_3.0.4\lib\aether-spi-1.13.1.jar;C:\Oracle\Middleware\Oracle_Home\oracle_common\modules\org.apache.maven_3.0.4\lib\aether-impl-1.13.1.jar;C:\Oracle\Middleware\Oracle_Home\oracle_common\modules\org.apache.maven_3.0.4\lib\aether-connector-wagon-1.13.1.jar;C:\Oracle\Middleware\Oracle_Home\oracle_common\modules\org.apache.maven_3.0.4\lib\aether-api-1.13.1.jar;"/>
    <property name="java.vm.specification.version" value="1.7"/>
    <property name="sun.arch.data.model" value="64"/>
    <property name="java.home" value="C:\Oracle\Middleware\Oracle_Home\oracle_common\jdk\jre"/>
    <property name="sun.java.command" value="org.codehaus.classworlds.Launcher --settings C:\Users\Admin\.m2\settings.xml --file C:\JDeveloper\work\RAAHome\CalculatorTools\pom.xml test"/>
    <property name="java.specification.vendor" value="Oracle Corporation"/>
    <property name="user.language" value="ru"/>
    <property name="awt.toolkit" value="sun.awt.windows.WToolkit"/>
    <property name="java.vm.info" value="mixed mode"/>
    <property name="java.version" value="1.7.0_15"/>
    <property name="java.ext.dirs" value="C:\Oracle\Middleware\Oracle_Home\oracle_common\jdk\jre\lib\ext;C:\Windows\Sun\Java\lib\ext"/>
    <property name="sun.boot.class.path" value="C:\Oracle\Middleware\Oracle_Home\oracle_common\jdk\jre\lib\resources.jar;C:\Oracle\Middleware\Oracle_Home\oracle_common\jdk\jre\lib\rt.jar;C:\Oracle\Middleware\Oracle_Home\oracle_common\jdk\jre\lib\sunrsasign.jar;C:\Oracle\Middleware\Oracle_Home\oracle_common\jdk\jre\lib\jsse.jar;C:\Oracle\Middleware\Oracle_Home\oracle_common\jdk\jre\lib\jce.jar;C:\Oracle\Middleware\Oracle_Home\oracle_common\jdk\jre\lib\charsets.jar;C:\Oracle\Middleware\Oracle_Home\oracle_common\jdk\jre\lib\jfr.jar;C:\Oracle\Middleware\Oracle_Home\oracle_common\jdk\jre\classes"/>
    <property name="java.vendor" value="Oracle Corporation"/>
    <property name="maven.home" value="C:\Oracle\Middleware\Oracle_Home\oracle_common\modules\org.apache.maven_3.0.4"/>
    <property name="file.separator" value="\"/>
    <property name="java.vendor.url.bug" value="http://bugreport.sun.com/bugreport/"/>
    <property name="sun.cpu.endian" value="little"/>
    <property name="sun.io.unicode.encoding" value="UnicodeLittle"/>
    <property name="sun.desktop" value="windows"/>
    <property name="sun.cpu.isalist" value="amd64"/>
  </properties>
  <testcase time="0.008" classname="by.raa.home.parser.MathExpressionParserTest" name="testParse"/>
</testsuite>