by\raa\home\util\ExpressionFromFileTest.class
by\raa\home\parser\MathExpressionParser.class
by\raa\home\CalculatorTool.class
by\raa\home\ParserTestSuite.class
by\raa\home\RunnerTest.class
by\raa\home\util\ExpressionFromFile.class
by\raa\home\parser\MathExpressionParserTest.class
